<svg width="40" height="40" xmlns="http://www.w3.org/2000/svg" xmlns:svg="http://www.w3.org/2000/svg">
 <!-- Created with SVG-edit - https://github.com/SVG-Edit/svgedit-->
 <g class="layer">
  <title>Layer 1</title>
  <path d="m8.43851,27.62075l11.56149,-21.3937l11.56149,21.3937l-23.12298,0z" fill="#555555" id="svg_1" stroke="#555555" stroke-linejoin="round" stroke-width="3"/>
  <line fill="none" id="svg_3" stroke="#555555" stroke-dasharray="null" stroke-linecap="null" stroke-linejoin="round" stroke-width="3" x1="2.76986" x2="37.23014" y1="28.58091" y2="28.58091"/>
  <line fill="none" id="svg_4" stroke="#555555" stroke-dasharray="null" stroke-linecap="null" stroke-linejoin="round" stroke-width="1.6" transform="rotate(-45 23.5784 31.7713)" x1="23.57837" x2="23.57837" y1="29.38012" y2="34.16247"/>
  <line fill="none" id="svg_12" stroke="#555555" stroke-dasharray="null" stroke-linecap="null" stroke-linejoin="round" stroke-width="1.6" transform="rotate(-45 28.3257 31.7713)" x1="28.3257" x2="28.3257" y1="29.38011" y2="34.16246"/>
  <line fill="none" id="svg_13" stroke="#555555" stroke-dasharray="null" stroke-linecap="null" stroke-linejoin="round" stroke-width="1.6" transform="rotate(-45 33.3283 31.7713)" x1="33.32824" x2="33.32824" y1="29.38014" y2="34.16249"/>
  <line fill="none" id="svg_14" stroke="#555555" stroke-dasharray="null" stroke-linecap="null" stroke-linejoin="round" stroke-width="1.6" transform="rotate(-45 18.6779 31.7713)" x1="18.67792" x2="18.67792" y1="29.38008" y2="34.16243"/>
  <line fill="none" id="svg_15" stroke="#555555" stroke-dasharray="null" stroke-linecap="null" stroke-linejoin="round" stroke-width="1.6" transform="rotate(-45 13.4201 31.7713)" x1="13.42013" x2="13.42013" y1="29.38011" y2="34.16246"/>
  <line fill="none" id="svg_16" stroke="#555555" stroke-dasharray="null" stroke-linecap="null" stroke-linejoin="round" stroke-width="1.6" transform="rotate(-45 8.06027 31.7713)" x1="8.06025" x2="8.06025" y1="29.3801" y2="34.16246"/>
 </g>
</svg>