<svg width="39.99999999999999" height="39.99999999999999" xmlns="http://www.w3.org/2000/svg" xmlns:svg="http://www.w3.org/2000/svg">
 <title>rew</title>
 <g>
  <title>Layer 1</title>
  <path stroke="#555555" stroke-width="1" d="m9.532461,1.569391l22.136435,20.660673l-10.699277,0.922352l6.08752,13.466331l-4.058347,1.844703l-5.903049,-13.650802l-7.563282,7.194341l0,-30.437599" id="svg_1" fill="#555555" stroke-linejoin="round" stroke-linecap="round"/>
 </g>
</svg>