<svg width="40" height="40" xmlns="http://www.w3.org/2000/svg" xmlns:svg="http://www.w3.org/2000/svg">
 <style type="text/css">.st0{fill:#555555;}</style>
 <g class="layer">
  <title>Layer 1</title>
  <polygon class="st0" fill="#555555" id="Fill-6" points="14.267 13.205 16.5602 13.205 16.5602 31.5506 14.267 31.5506"/>
  <polygon class="st0" fill="#555555" id="Fill-7" points="18.853424072265625,13.204971313476562 21.146575927734375,13.204971313476562 21.146575927734375,31.55059814453125 18.853424072265625,31.55059814453125 "/>
  <polygon class="st0" fill="#555555" id="Fill-8" points="23.439804077148438,13.204971313476562 25.733001708984375,13.204971313476562 25.733001708984375,31.55059814453125 23.439804077148438,31.55059814453125 "/>
  <polygon class="st0" fill="#555555" id="Fill-9" points="5.09417724609375,6.3253631591796875 34.90582275390625,6.3253631591796875 34.90582275390625,8.618576049804688 5.09417724609375,8.618576049804688 "/>
  <path class="st0" d="m25.65657,7.47197l-2.14032,0l0,-2.2932c0,-0.68796 -0.53508,-1.22304 -1.22304,-1.22304l-4.58641,0c-0.68796,0 -1.22304,0.53508 -1.22304,1.22304l0,2.2932l-2.14032,0l0,-2.2932c0,-1.83456 1.5288,-3.36336 3.36336,-3.36336l4.58641,0c1.83456,0 3.36336,1.5288 3.36336,3.36336l0,2.2932" fill="#555555" id="Fill-10"/>
  <path class="st0" d="m26.87961,38.4302l-13.75922,0c-1.83456,0 -3.4398,-1.5288 -3.59268,-3.36336l-2.14032,-27.51843l2.2932,-0.15288l2.14032,27.51843c0.07644,0.68796 0.68796,1.22304 1.29948,1.22304l13.75922,0c0.68796,0 1.29948,-0.61152 1.29948,-1.22304l2.14032,-27.51843l2.2932,0.15288l-2.14032,27.51843c-0.15288,1.911 -1.75812,3.36336 -3.59268,3.36336" fill="#555555" id="Fill-11"/>
 </g>
</svg>